<?xml version="1.0" standalone="no"?>
<!DOCTYPE svg PUBLIC "-//W3C//DTD SVG 1.1//EN" "http://www.w3.org/Graphics/SVG/1.1/DTD/svg11.dtd">
<svg xmlns="http://www.w3.org/2000/svg">
<metadata>Generated by Fontastic.me</metadata>
<defs>
<font id="untitled-font-1" horiz-adv-x="512">
<font-face font-family="untitled-font-1" units-per-em="512" ascent="480" descent="-32"/>
<missing-glyph horiz-adv-x="512" />

<glyph glyph-name="flag-o" unicode="&#97;" d="M475 213l0 176c-32-17-61-26-87-26-16 0-29 3-41 10-19 9-37 16-53 21-16 6-33 8-51 8-33 0-71-12-115-36l0-171c47 21 88 32 124 32 10 0 20-1 29-2 10-1 19-4 28-7 10-4 17-7 22-9 6-3 13-6 24-12l8-4c8-4 18-6 29-6 23 0 50 9 83 26z m-384 226c0-7-1-13-5-18-3-6-7-10-13-14l0-361c0-3-1-5-2-7-2-2-4-2-7-2l-18 0c-3 0-5 0-7 2-2 2-2 4-2 7l0 361c-6 4-10 8-14 14-3 5-5 11-5 18 0 10 4 19 11 26 7 7 16 10 26 10 10 0 19-3 26-10 7-7 10-16 10-26z m421-18l0-218c0-8-3-13-10-17-2-1-4-2-5-2-41-22-77-33-105-33-17 0-32 3-45 10l-8 4c-13 6-22 10-29 13-6 3-15 6-26 9-10 2-21 4-32 4-20 0-42-5-68-13-25-8-47-18-65-29-3-2-6-3-9-3-3 0-6 1-9 3-7 3-10 9-10 16l0 212c0 6 3 11 9 15 7 4 14 8 23 12 8 5 19 9 32 15 14 6 28 11 44 14 15 4 30 6 44 6 21 0 41-3 60-9 18-6 38-14 60-25 7-3 15-5 25-5 23 0 53 11 89 32 4 2 7 4 8 5 6 3 12 3 18-1 6-4 9-9 9-15z"/>
<glyph glyph-name="milestone" unicode="&#98;" d="M400 416l-352 0 0-128 352 0 64 64z m-128-96l-64 0 0 64 64 0z m0 192l-64 0 0-64 64 0z m-64-512l64 0 0 256-64 0z"/>
<glyph glyph-name="tools" unicode="&#99;" d="M143 279c9-8 41-42 41-42l18 18-28 30 54 57c0 0-24 24-14 14 11 38 1 81-28 110-28 30-69 40-105 30l62-64-17-63-60-17-62 64c-10-38-1-79 28-109 30-31 73-40 111-28z m206-62l-74-73 123-128c10-10 23-15 36-15 13 0 27 5 37 15 20 21 20 55 0 76z m163 214l-78 81-231-239 28-29-138-143-32-16-44-73 11-12 70 46 17 33 138 143 28-30z"/>
<glyph glyph-name="address" unicode="&#100;" d="M218 486c7 0 10-3 10-10 0 0 0-440 0-440 0-7-3-10-10-10 0 0-23 0-23 0-7 0-11 3-11 10 0 0 0 225 0 225 0 0-90 0-90 0-5 0-10 1-14 3-4 1-9 3-13 6 0 0-62 42-62 42-3 2-5 5-5 9 0 3 2 6 5 8 0 0 62 42 62 42 4 3 9 5 13 6 3 1 7 2 14 2 0 0 90 0 90 0 0 0 0 97 0 97 0 7 4 10 11 10 0 0 23 0 23 0m289-106c3-2 5-5 5-8 0-4-2-6-5-8 0 0-61-42-61-42-7-5-11-7-13-7-5-2-9-3-14-3 0 0-155 0-155 0 0 0-20 118-20 118 0 0 175 0 175 0 6 0 11-1 14-2 4-1 8-3 13-6 0 0 61-42 61-42"/>
<glyph glyph-name="database" unicode="&#101;" d="M428 183c5 7 7 7 7-1 0 0 0-51 0-51 0-25-18-48-53-69-36-21-78-31-126-31-48 0-90 10-125 31-36 21-54 44-54 69 0 0 0 51 0 51 0 3 0 5 2 5 1 1 3 0 5-4 11-17 32-32 64-44 32-11 68-17 108-17 40 0 76 6 108 17 32 12 53 27 64 44m1 130c3 6 5 6 6 0 0 0 0-59 0-59 0-23-17-43-52-58-35-16-77-24-127-24-49 0-91 8-126 24-36 15-53 35-53 58 0 0 0 59 0 59 0 7 2 7 7 0 10-15 31-28 63-38 33-10 69-15 109-15 40 0 76 5 109 15 32 10 53 23 64 38m-173 168c49 0 91-6 126-20 36-13 53-29 53-47 0 0 0-33 0-33 0-20-17-37-53-51-35-14-77-21-126-21-49 0-91 7-126 21-36 14-53 31-53 51 0 0 0 33 0 33 0 18 17 34 53 47 35 14 77 20 126 20"/>
<glyph glyph-name="archive" unicode="&#102;" d="M435 384c0 0 0-26 0-26 0 0-357 0-357 0 0 0 0 26 0 26 0 8 3 13 7 18 5 4 9 7 13 8 0 0 6 0 6 0 0 0 305 0 305 0 2 0 5-1 7-1 3 0 7-3 12-7 4-5 7-10 7-18m-76 77c2 0 4 0 7-1 3 0 7-2 11-7 5-4 8-10 8-18 0 0-255 0-255 0 0 8 2 14 6 18 5 5 9 7 13 8 0 0 6 0 6 0 0 0 204 0 204 0m127-103c12-11 18-18 19-23 3-6 3-16 0-28 0 0-38-230-38-230-2-8-5-14-11-18-5-5-10-7-14-8 0 0-7 0-7 0 0 0-357 0-357 0-17 0-28 9-30 26-2 9-9 47-20 114-11 67-18 106-20 116-4 8-4 15-2 23 3 7 4 12 5 13 1 1 5 5 11 10 0 0 5 5 5 5 0 0 16 16 16 16 0 0 0-41 0-41 0 0 428 0 428 0 0 0 0 41 0 41 0 0 15-16 15-16m-127-138c0 0 0 51 0 51 0 0-36 0-36 0 0 0 0-41 0-41 0 0-133 0-133 0 0 0 0 41 0 41 0 0-35 0-35 0 0 0 0-51 0-51 0-17 8-25 25-25 0 0 153 0 153 0 8 0 14 2 18 6 5 4 7 8 7 12 0 0 1 7 1 7"/>
<glyph glyph-name="comments" unicode="&#103;" d="M402 293c0-27-9-51-27-74-17-22-42-40-73-53-31-13-64-20-101-20-16 0-33 2-50 5-24-17-50-29-80-37-6-1-15-3-24-4l-1 0c-2 0-4 0-6 2-2 2-3 4-3 6 0 1 0 1 0 2 0 1 0 1-1 2 0 0 1 1 1 1l1 2 1 1 1 2 1 1 1 2c1 1 3 3 7 7 3 3 6 6 7 8 2 2 4 5 7 8 2 4 5 8 7 11 2 4 4 8 6 13-24 14-42 31-56 51-14 20-20 41-20 64 0 26 9 51 27 73 17 22 42 40 73 53 31 13 64 20 101 20 36 0 70-7 101-20 31-13 55-31 73-53 18-22 27-47 27-73z m110-74c0-22-7-44-20-64-14-20-32-36-56-50 2-5 4-9 6-13 2-4 4-7 7-11 3-3 5-6 6-8 2-2 4-5 8-8 3-4 5-6 6-8 1 0 1 0 2-1 0-1 1-1 1-1 0-1 1-1 1-2 0 0 1-1 1-1l1-2 0-1 0-2 0-2c0-3-2-5-4-6-1-2-4-3-6-2-9 1-18 2-24 4-30 8-56 20-80 37-17-3-34-5-50-5-52 0-97 13-135 38 11-1 19-1 25-1 31 0 60 4 88 13 29 8 54 20 76 36 24 18 42 38 55 61 12 23 19 47 19 73 0 14-2 29-7 43 25-14 44-30 59-51 14-20 21-42 21-66z"/>
</font></defs></svg>
